…
## MANUALTUNE

Make a manual grid based on results from the automatic grid

``` r
pepm.rand.forest.grid <- grid_regular(
  mtry(range = c(10, 30)),
  min_n(range = c(1, 3)),
  levels = 7)

pepm.rand.forest.grid
```

    ## # A tibble: 21 x 2
    ##     mtry min_n
    ##    <int> <int>
    ##  1    10     1
    ##  2    13     1
    ##  3    16     1
    ##  4    20     1
    ##  5    23     1
    ##  6    26     1
    ##  7    30     1
    ##  8    10     2
    ##  9    13     2
    ## 10    16     2
    ## # … with 11 more rows
…
